%YAML 1.1
%TAG !u! tag:unity3d.com,2011:
--- !u!114 &11400000
MonoBehaviour:
  m_ObjectHideFlags: 0
  m_CorrespondingSourceObject: {fileID: 0}
  m_PrefabInternal: {fileID: 0}
  m_GameObject: {fileID: 0}
  m_Enabled: 1
  m_EditorHideFlags: 0
  m_Script: {fileID: 11500000, guid: 65b5eddd8ce37cf4c9829174e3407b78, type: 3}
  m_Name: Sword1
  m_EditorClassIdentifier: 
  itemName: New Item
  icon: {fileID: 0}
  itemPrefab: {fileID: 1412253161270778, guid: 1f725bef00f48c442939eb884609b1ff, type: 2}
  isIndestructible: 0
  isStackable: 0
  stackAmount: 0
  destroyOnUse: 0
  lootType: 0
  description: 
  damage: 5
  usesAmmo: 0
  bulletsPerMag: 0
  timeBetweenShots: 1
  timeToReload: 0
  timeToDisplayEffects: 0
  timeToEquip: 1
  timeToUnEquip: 1
  shotSound: {fileID: 8300000, guid: a1a3178f0271f49c5a12bc0c347e6e52, type: 3}
  reloadSound: {fileID: 8300000, guid: c9abac777fa1b43038b8e3c07101562d, type: 3}
  bulletSpawn: {x: 0, y: 0, z: 0}
  equipPosition: {x: 0.427, y: 0.837, z: 0.144}
  range: 2
